@startuml
participant A
participant B
activate A
A -> B: Missatge síncron
activate B
A <-- B: Retorn missatge síncron
deactivate B
A ->> B: Missatge asíncron
activate B
create C
A -->> C: Crea objecte
activate C
@enduml
