@startuml
class Llibre{
  editor
  isbn
  data_pub
}
class Part{

}
class Capitol{

  resum
}
class Seccio {

}

abstract class Info{
  titol
  numero
}


Llibre*- Part
Part *-Capitol
Capitol*-Seccio
Info<..Part
Info<..Capitol
Info<..Seccio
@enduml
