@startuml


[o->Jardi:temps()
activate Jardi
Jardi -> Altibus: esViva()
activate Altibus
Altibus --> Jardi: true
deactivate Altibus
Jardi -> Altibus: creix()
activate Altibus
participant Altibus as AltibusLl
create AltibusLl
Altibus -> AltibusLl: new Altibus
activate AltibusLl
AltibusLl-->Altibus: Altibus
deactivate AltibusLl
create Llavor
Altibus-> Llavor:new Llavor
activate Llavor
Llavor --> Altibus: Llavor
deactivate Llavor
Altibus-->Jardi:Llavor
deactivate Altibus
deactivate Llavor
Jardi->Jardi:plantaLlavor(Llavor, pos)
activate Jardi
Jardi-->Jardi:true
deactivate Jardi
<-Jardi:end













@enduml
