@startuml
[o-> Zoo:mira()
activate Zoo
Zoo -> Cocodril:accio(Zoo)
activate Cocodril
Cocodril -> Cocodril:alimenta(Zoo)
activate Cocodril
Cocodril -> Zoo:mostraAnimal()
activate Zoo
Zoo --> Cocodril: Vaca
deactivate Zoo
Cocodril -> Zoo:suprimeixAnimal(Vaca)
activate Zoo
Zoo --> Cocodril:
deactivate Zoo
Cocodril --> Cocodril:String str
deactivate Cocodril
Cocodril --> Zoo: String str
deactivate Cocodril
<-- Zoo: end
deactivate Zoo

@enduml
